Getting Started with R: Session 4
…
Activity

Filter the run17 dataset to only men over 40 who ran the 10 mile race

run17 |> 
  filter(? == ? & ? >= ? & ? == ?)

Activity Check

run17 |> 
  filter(event == "10 Mile" & age >= 40 & sex == "M")

# A tibble: 2,959 × 9
     bib name         sex     age city          net_sec clock_sec pace_sec event
   <int> <chr>        <chr> <int> <chr>           <dbl>     <dbl>    <dbl> <chr>
 1   129 David W.     M        41 Arlington, VA    3196      3198      319 10 M…
 2   127 Philippe R.  M        44 Mclean, VA       3218      3220      321 10 M…
 3 23050 Matthew W.   M        40 Ogden, UT        3399      3406      339 10 M…
 4   145 Knox R.      M        42 Brooklyn, NY     3402      3403      340 10 M…
 5   597 Shane S.     M        45 Viera, FL        3442      3448      344 10 M…
 6   147 David O.     M        40 Alexandria, …    3447      3449      344 10 M…
 7   152 Noah Z.      M        45 Washington, …    3450      3453      345 10 M…
 8   620 Brian H.     M        40 Silver Sprin…    3500      3513      350 10 M…
 9   166 Martin L.    M        43 Bethesda, MD     3528      3530      352 10 M…
10   168 Alexander H. M        49 Vienna, VA       3548      3554      354 10 M…
# ℹ 2,949 more rows
…
