Getting Started with R: Session 3
…
The both work the same way.

Mac Shortcut: Command + Shift + M

Windows Shortcut: Control + Shift + M

select

The select function is how you grab columns.

# select(df, columns)
select(run17, city) 

# A tibble: 19,961 × 1
   city                
   <chr>               
 1 Ethiopia            
 2 Ethiopia            
 3 Kenya               
 4 Ethiopia            
 5 Poland              
 6 Ethiopia            
 7 Portland, OR        
 8 Kenya               
 9 Saratoga Springs, NY
10 Reston, VA          
# ℹ 19,951 more rows
…
Other handy features of select

What am I doing here?

run17 |> 
  select(-c(bib, clock_sec)) 

# A tibble: 19,961 × 7
   name         sex     age city                 net_sec pace_sec event  
   <chr>        <chr> <int> <chr>                  <dbl>    <dbl> <chr>  
 1 Hiwot G.     F        21 Ethiopia                3217      321 10 Mile
 2 Buze D.      F        22 Ethiopia                3232      323 10 Mile
 3 Gladys K.    F        31 Kenya                   3276      327 10 Mile
 4 Mamitu D.    F        33 Ethiopia                3285      328 10 Mile
 5 Karolina N.  F        35 Poland                  3288      328 10 Mile
 6 Firehiwot D. F        33 Ethiopia                3316      331 10 Mile
 7 Tara W.      F        27 Portland, OR            3334      333 10 Mile
 8 Nancy N.     F        21 Kenya                   3357      335 10 Mile
 9 Hannah D.    F        26 Saratoga Springs, NY    3359      335 10 Mile
10 Susanna S.   F        26 Reston, VA              3372      337 10 Mile
# ℹ 19,951 more rows

Activity: Can you select all columns except the bib column?

Activity Check

run17 |> 
  select(-c(bib))

# A tibble: 19,961 × 8
   name         sex     age city                net_sec clock_sec pace_sec event
   <chr>        <chr> <int> <chr>                 <dbl>     <dbl>    <dbl> <chr>
 1 Hiwot G.     F        21 Ethiopia               3217      3217      321 10 M…
 2 Buze D.      F        22 Ethiopia               3232      3232      323 10 M…
 3 Gladys K.    F        31 Kenya                  3276      3276      327 10 M…
 4 Mamitu D.    F        33 Ethiopia               3285      3285      328 10 M…
 5 Karolina N.  F        35 Poland                 3288      3288      328 10 M…
 6 Firehiwot D. F        33 Ethiopia               3316      3316      331 10 M…
 7 Tara W.      F        27 Portland, OR           3334      3334      333 10 M…
 8 Nancy N.     F        21 Kenya                  3357      3357      335 10 M…
 9 Hannah D.    F        26 Saratoga Springs, …    3359      3359      335 10 M…
10 Susanna S.   F        26 Reston, VA             3372      3372      337 10 M…
# ℹ 19,951 more rows
…
Final Activity

Filter the run17 dataset to only men over 40 who ran the 10 mile race

run17 |> 
  filter(? == ? & ? >= ? & ? == ?)

Activity Check

run17 |> 
  filter(event == "10 Mile" & age >= 40 & sex == "M")

# A tibble: 2,959 × 9
     bib name         sex     age city          net_sec clock_sec pace_sec event
   <int> <chr>        <chr> <int> <chr>           <dbl>     <dbl>    <dbl> <chr>
 1   129 David W.     M        41 Arlington, VA    3196      3198      319 10 M…
 2   127 Philippe R.  M        44 Mclean, VA       3218      3220      321 10 M…
 3 23050 Matthew W.   M        40 Ogden, UT        3399      3406      339 10 M…
 4   145 Knox R.      M        42 Brooklyn, NY     3402      3403      340 10 M…
 5   597 Shane S.     M        45 Viera, FL        3442      3448      344 10 M…
 6   147 David O.     M        40 Alexandria, …    3447      3449      344 10 M…
 7   152 Noah Z.      M        45 Washington, …    3450      3453      345 10 M…
 8   620 Brian H.     M        40 Silver Sprin…    3500      3513      350 10 M…
 9   166 Martin L.    M        43 Bethesda, MD     3528      3530      352 10 M…
10   168 Alexander H. M        49 Vienna, VA       3548      3554      354 10 M…
# ℹ 2,949 more rows
…
